…
#> 19 010007
#> 20 010008
#> 21 010011
#> 22 010012
#> 23 010016
#> 24 010018
#> 25 010019
#> 26 010021
#> 27 010022
#> 28 010023
#> 29 010024
#> 30 010029
#> 31 010033
tibble::tibble(x)
#> # A tibble: 31 × 1
#>    x     
#>    <ccn> 
#>  1 001541
#>  2 001545
#>  3 001550
#>  4 001552
#>  5 001556
#>  6 001557
#>  7 001561
#>  8 001562
#>  9 001563
#> 10 001568
#> # ℹ 21 more rows
```
