…
  Facility type abbreviation

- desc:

  Facility type description

## Source

<https://www.cms.gov/regulations-and-guidance/guidance/manuals/downloads/som107c02.pdf>

## Examples

``` r
state_codes
#> # A tibble: 108 × 3
#>    code  abbr  name                
#>    <chr> <chr> <chr>               
#>  1 00    AZ    Arizona             
#>  2 01    AL    Alabama             
#>  3 02    AK    Alaska              
#>  4 03    AZ    Arizona             
#>  5 04    AR    Arkansas            
#>  6 05    CA    California          
#>  7 06    CO    Colorado            
#>  8 07    CT    Connecticut         
#>  9 08    DE    Delaware            
#> 10 09    DC    District of Columbia
#> # ℹ 98 more rows
medicare_ranges
#> # A tibble: 39 × 3
#>    range     abbr        desc                                                   
#>    <chr>     <chr>       <chr>                                                  
#>  1 0001-0879 ACUTE       Short-Term Hospital (General & Specialty)              
#>  2 0880-0899 ORD         Hospital Participating in ORD Demonstration Project    
#>  3 0900-0999 MHCMC (RET) Multiple Hospital Component in a Medical Complex (Reti…
#>  4 1000-1199 FQHC        Federally Qualified Health Center                      
#>  5 1200-1224 ADH (RET)   Alcohol-Drug Hospital (Retired)                        
#>  6 1225-1299 MAF         Medical Assistance Facility                            
#>  7 1300-1399 CAH         Critical Access Hospital                               
#>  8 1400-1499 CMHC        Community Mental Health Center                         
#>  9 1500-1799 HOSPICE     Hospice                                                
#> 10 1800-1989 FQHC        Federally Qualified Health Center                      
#> # ℹ 29 more rows
…
